%YAML 1.1
%TAG !u! tag:unity3d.com,2011:
--- !u!162 &1
EditorUserSettings:
  m_ObjectHideFlags: 0
  serializedVersion: 4
  m_ConfigSettings:
    RecentlyUsedScenePath-0:
      value: 224247031146466f0816180f15305750260517650930273d3d251820a2a6741dfaf324e8f4750c3f3c0cea2f4b6f533eb247493ff3131e4b3800e90b03fe130718ca16d654dd1115df00
      flags: 0
    RecentlyUsedScenePath-1:
      value: 224247031146467608090d6f362a5a020558352528212039283b0e7df7ee3d2cfb
      flags: 0
    RecentlyUsedScenePath-2:
      value: 224247031146467608090d6f362a5a0205582a232e2a293e3e67083debf42d
      flags: 0
    RecentlyUsedScenePath-3:
      value: 2242470311464678181c1a2714175a08023a1d392418343f621a1e36ece52777c6e23be6d4393a323c4cfa320d2a18
      flags: 0
    RecentlyUsedScenePath-4:
      value: 224247031146466f0816180f15305750260517650930273d3d251820a2a6741dfaf324e8f4750c3f3c0cea2f4b6e5072b24a3a02f80c060e5122f40014bf241609d135c009c05f2cd91652dbc314c5fa
      flags: 0
    RecentlyUsedScenePath-5:
      value: 224247031146466f0816180f15305750260517650930273d3d251820a2a6741dfaf324e8f4750c3f3c0cea2f4b6e537fbf4a241efa1f03461d07f30b51cb150b05e81dd612882f0ec45709c0c409c8
      flags: 0
    RecentlyUsedScenePath-6:
      value: 224247031146466f0816180f15305750260517650930273d3d251820a2a6741dfaf324e8f4750c3f3c0cea2f4b6e527fbf4a2502f80e4a21041de90717f6131205cc17cb54dd1115df00
      flags: 0
    RecentlyUsedScenePath-7:
      value: 224247031146466f0816180f15305750260517650930273d3d251820a2a6741dfaf324e8f4750c3f3c0cea2f4b6e557fbf4a3e04e40f4a3c030fed1e18f1175d04cb11d103
      flags: 0
    RecentlyUsedScenePath-8:
      value: 224247031146466f0816180f15305750260517650930273d3d251820a2a6741dfaf324e8f4750c3f3c0cea2f4b6e547fbf4a3a1fef070f4b250ffa1d5fea1e1a05dc
      flags: 0
    RecentlyUsedScenePath-9:
      value: 22424703114646680e0b0227036c6c111b07142f1f2b233e2867083debf42d
      flags: 0
    vcSharedLogLevel:
      value: 0d5e400f0650
      flags: 0
  m_VCAutomaticAdd: 1
  m_VCDebugCom: 0
  m_VCDebugCmd: 0
  m_VCDebugOut: 0
  m_SemanticMergeMode: 2
  m_VCShowFailedCheckout: 1
  m_VCOverwriteFailedCheckoutAssets: 1
  m_VCProjectOverlayIcons: 1
  m_VCHierarchyOverlayIcons: 1
  m_VCOtherOverlayIcons: 1
  m_VCAllowAsyncUpdate: 1
